<?xml version="1.0" encoding="utf-8"?>
<!-- Generator: Adobe Illustrator 16.0.0, SVG Export Plug-In . SVG Version: 6.00 Build 0)  -->
<!DOCTYPE svg PUBLIC "-//W3C//DTD SVG 1.1//EN" "http://www.w3.org/Graphics/SVG/1.1/DTD/svg11.dtd">
<svg version="1.1" id="Layer_1" xmlns="http://www.w3.org/2000/svg" xmlns:xlink="http://www.w3.org/1999/xlink" x="0px" y="0px"
	 width="26.929px" height="16.756px" viewBox="0 0 26.929 16.756" enable-background="new 0 0 26.929 16.756" xml:space="preserve">
<line fill="none" stroke="#FFFFFF" stroke-width="2" x1="0" y1="1" x2="26.929" y2="1"/>
<line fill="none" stroke="#FFFFFF" stroke-width="2" x1="0" y1="8.378" x2="26.929" y2="8.378"/>
<line fill="none" stroke="#FFFFFF" stroke-width="2" x1="0" y1="15.756" x2="26.929" y2="15.756"/>
</svg>
